{
    "manufactureInfo": "",
    "catalogueName": "",
    "brandName": "",
    "hsnCode": "",
    "gstIn": "",
    "sku": "",
    "styleCode": "",
    "variation": "",
    "variationType": "",
    "productType": "",
    "sizeVariant": "",
    "productName": "",
    "color": "",
    "weight": "",
    "productDimension(L*B*H)": "",
    "packingDimension(L*B*H)": "",
    "withOutGSTMRP": "",
    "discount": "",
    "ttsPortol": "",
    "ttsVendor": "",
    "vp": "",
    "sp": "",
    "quantity": "",
    "productDescription": "",
    "pattern": "",
    "costIncludes": ""
}